{
    "openapi": "3.0.0",
    "info": {
        "title": "Moobee API",
        "contact": {
            "name": "Toni García Alhambra",
            "email": "toni_142@icloud.com"
        },
        "version": "0.1"
    },
    "servers": [
        {
            "url": "localhost:8000/v1"
        }
    ],
    "paths": {
        "/register": {
            "post": {
                "tags": [
                    "User"
                ],
                "summary": "Register a new user",
                "operationId": "api.user.register",
                "parameters": [
                    {
                        "name": "first_name",
                        "in": "query",
                        "required": true,
                        "schema": {
                            "type": "string"
                        }
                    },
                    {
                        "name": "username",
                        "in": "query",
                        "required": true,
                        "schema": {
                            "type": "string"
                        }
                    },
                    {
                        "name": "email",
                        "in": "query",
                        "required": false,
                        "schema": {
                            "type": "string"
                        }
                    },
                    {
                        "name": "password",
                        "in": "query",
                        "required": false,
                        "schema": {
                            "type": "string"
                        }
                    }
                ],
                "responses": {
                    "200": {
                        "description": "User registered successfully",
                        "content": {
                            "application/json": {
                                "schema": {
                                    "properties": {
                                        "error": {
                                            "type": "boolean",
                                            "example": false
                                        },
                                        "data": {
                                            "type": "string",
                                            "$ref": "#/components/schemas/UserSchema"
                                        }
                                    },
                                    "type": "object"
                                }
                            }
                        }
                    }
                }
            }
        },
        "/login": {
            "post": {
                "tags": [
                    "User"
                ],
                "summary": "Login a new user",
                "operationId": "api.user.login",
                "parameters": [
                    {
                        "name": "username",
                        "in": "query",
                        "required": false,
                        "schema": {
                            "type": "string"
                        }
                    },
                    {
                        "name": "email",
                        "in": "query",
                        "required": false,
                        "schema": {
                            "type": "string"
                        }
                    },
                    {
                        "name": "password",
                        "in": "query",
                        "required": true,
                        "schema": {
                            "type": "string"
                        }
                    }
                ],
                "responses": {
                    "200": {
                        "description": "User logged in successfully",
                        "content": {
                            "application/json": {
                                "schema": {
                                    "properties": {
                                        "error": {
                                            "type": "boolean",
                                            "example": false
                                        },
                                        "data": {
                                            "type": "string",
                                            "$ref": "#/components/schemas/UserSchema"
                                        }
                                    },
                                    "type": "object"
                                }
                            }
                        }
                    },
                    "400": {
                        "description": "Contraseña incorrecta",
                        "content": {
                            "application/json": {
                                "schema": {
                                    "properties": {
                                        "error": {
                                            "type": "boolean",
                                            "example": true
                                        },
                                        "data": {
                                            "type": "string",
                                            "example": "Contraseña incorrecta"
                                        }
                                    },
                                    "type": "object"
                                }
                            }
                        }
                    },
                    "404": {
                        "description": "Usuario o correo incorrecto",
                        "content": {
                            "application/json": {
                                "schema": {
                                    "properties": {
                                        "error": {
                                            "type": "boolean",
                                            "example": true
                                        },
                                        "data": {
                                            "type": "string",
                                            "example": "Email o username inválido"
                                        }
                                    },
                                    "type": "object"
                                }
                            }
                        }
                    }
                }
            }
        }
    },
    "components": {
        "schemas": {
            "UserSchema": {
                "description": "User model",
                "properties": {
                    "id": {
                        "description": "Class UserController",
                        "type": "integer",
                        "example": 63
                    },
                    "username": {
                        "description": "Class UserController",
                        "type": "string",
                        "example": "xavier"
                    },
                    "first_name": {
                        "description": "Class UserController",
                        "type": "string",
                        "example": "Xavier"
                    },
                    "bio": {
                        "description": "Class UserController",
                        "type": "string",
                        "example": "Lorem ipsum dolor sit amet..."
                    },
                    "avatar": {
                        "description": "Class UserController",
                        "type": "string",
                        "example": "789546231-xavier.jpg"
                    },
                    "header_image": {
                        "description": "Class UserController",
                        "type": "string",
                        "example": "789654123-film.jpg"
                    },
                    "is_draft": {
                        "description": "Class UserController",
                        "type": "boolean",
                        "example": false
                    }
                },
                "type": "object"
            }
        }
    }
}